; Engine configuration file.
; It's best edited using the editor UI and not directly,
; since the parameters that go here are not all obvious.
;
; Format:
;   [section] ; section goes between []
;   param=value ; assign values to parameters

config_version=4

[application]

config/name="Most Generic Survival Game"
run/main_scene="res://tscn/SingleplayerMenu.tscn"
config/use_custom_user_dir=true
config/custom_user_dir_name="MGSG-Bitterious"
run/delta_smoothing=false
config/icon="res://icon.png"

[autoload]

ScriptShared="*res://gd/ScriptShared.gd"

[debug]

settings/stdout/verbose_stdout=true
gdscript/completion/autocomplete_setters_and_getters=true
gdscript/warnings/unused_class_variable=true
gdscript/warnings/return_value_discarded=false

[display]

window/size/resizable=false
window/size/fullscreen=true
window/dpi/allow_hidpi=true
window/vsync/use_vsync=false
window/stretch/mode="2d"

[editor]

scene_naming=1

[gui]

common/drop_mouse_on_gui_input_disabled=true

[input]

movement_forward={
"deadzone": 0.5,
"events": [ Object(InputEventKey,"resource_local_to_scene":false,"resource_name":"","device":0,"alt":false,"shift":false,"control":false,"meta":false,"command":false,"pressed":false,"scancode":0,"physical_scancode":87,"unicode":0,"echo":false,"script":null)
 ]
}
movement_backward={
"deadzone": 0.5,
"events": [ Object(InputEventKey,"resource_local_to_scene":false,"resource_name":"","device":0,"alt":false,"shift":false,"control":false,"meta":false,"command":false,"pressed":false,"scancode":0,"physical_scancode":83,"unicode":0,"echo":false,"script":null)
 ]
}
movement_left={
"deadzone": 0.5,
"events": [ Object(InputEventKey,"resource_local_to_scene":false,"resource_name":"","device":0,"alt":false,"shift":false,"control":false,"meta":false,"command":false,"pressed":false,"scancode":0,"physical_scancode":65,"unicode":0,"echo":false,"script":null)
 ]
}
movement_right={
"deadzone": 0.5,
"events": [ Object(InputEventKey,"resource_local_to_scene":false,"resource_name":"","device":0,"alt":false,"shift":false,"control":false,"meta":false,"command":false,"pressed":false,"scancode":0,"physical_scancode":68,"unicode":0,"echo":false,"script":null)
 ]
}
movement_jump={
"deadzone": 0.5,
"events": [ Object(InputEventKey,"resource_local_to_scene":false,"resource_name":"","device":0,"alt":false,"shift":false,"control":false,"meta":false,"command":false,"pressed":false,"scancode":0,"physical_scancode":32,"unicode":0,"echo":false,"script":null)
 ]
}

[mono]

project/assembly_name="Most Generic Survival Game"

[network]

limits/debugger_stdout/max_chars_per_second=25203214

[physics]

3d/smooth_trimesh_collision=true
common/physics_fps=44
common/physics_jitter_fix=-1.0
3d/physics_engine="Bullet"
3d/active_soft_world=false

[rendering]

quality/filters/sharpen_intensity=0.5
quality/driver/fallback_to_gles2=true
quality/intended_usage/framebuffer_allocation.mobile=2
threads/thread_model=2
quality/directional_shadow/size=8192
quality/shadow_atlas/quadrant_0_subdiv=2
quality/shadow_atlas/quadrant_1_subdiv=3
quality/shadow_atlas/quadrant_2_subdiv=4
quality/shadow_atlas/quadrant_3_subdiv=5
quality/shadows/filter_mode=2
misc/mesh_storage/split_stream=true
quality/shading/use_physical_light_attenuation=true
2d/options/use_software_skinning=false
gles3/shaders/max_simultaneous_compiles=4
gles3/shaders/max_simultaneous_compiles.mobile=2
gles3/shaders/shader_cache_size_mb.mobile=256
quality/voxel_cone_tracing/high_quality=true
quality/filters/use_fxaa=true
quality/filters/use_debanding=true
